Paridad/simulation/qsim/Paridad1.msim.vcd
$comment
	File created using the following command:
		vcd file Paridad1.msim.vcd -direction
$end
$date
	Tue Apr 12 15:47:12 2022
$end
$version
	ModelSim Version 10.5b
$end
$timescale
	1ps
$end

$scope module paridad1_vhd_vec_tst $end
$var wire 1 ! clk $end
$var wire 1 " E $end
$var wire 1 # S $end

$scope module i1 $end
$var wire 1 $ gnd $end
$var wire 1 % vcc $end
$var wire 1 & unknown $end
$var wire 1 ' devoe $end
$var wire 1 ( devclrn $end
$var wire 1 ) devpor $end
$var wire 1 * ww_devoe $end
$var wire 1 + ww_devclrn $end
$var wire 1 , ww_devpor $end
$var wire 1 - ww_E $end
$var wire 1 . ww_clk $end
$var wire 1 / ww_S $end
$var wire 1 0 \~QUARTUS_CREATED_ADC1~_CHSEL_bus\ [4] $end
$var wire 1 1 \~QUARTUS_CREATED_ADC1~_CHSEL_bus\ [3] $end
$var wire 1 2 \~QUARTUS_CREATED_ADC1~_CHSEL_bus\ [2] $end
$var wire 1 3 \~QUARTUS_CREATED_ADC1~_CHSEL_bus\ [1] $end
$var wire 1 4 \~QUARTUS_CREATED_ADC1~_CHSEL_bus\ [0] $end
$var wire 1 5 \~QUARTUS_CREATED_ADC2~_CHSEL_bus\ [4] $end
$var wire 1 6 \~QUARTUS_CREATED_ADC2~_CHSEL_bus\ [3] $end
$var wire 1 7 \~QUARTUS_CREATED_ADC2~_CHSEL_bus\ [2] $end
$var wire 1 8 \~QUARTUS_CREATED_ADC2~_CHSEL_bus\ [1] $end
$var wire 1 9 \~QUARTUS_CREATED_ADC2~_CHSEL_bus\ [0] $end
$var wire 1 : \clk~inputclkctrl_INCLK_bus\ [3] $end
$var wire 1 ; \clk~inputclkctrl_INCLK_bus\ [2] $end
$var wire 1 < \clk~inputclkctrl_INCLK_bus\ [1] $end
$var wire 1 = \clk~inputclkctrl_INCLK_bus\ [0] $end
$var wire 1 > \~QUARTUS_CREATED_GND~I_combout\ $end
$var wire 1 ? \~QUARTUS_CREATED_UNVM~~busy\ $end
$var wire 1 @ \~QUARTUS_CREATED_ADC1~~eoc\ $end
$var wire 1 A \~QUARTUS_CREATED_ADC2~~eoc\ $end
$var wire 1 B \S~output_o\ $end
$var wire 1 C \clk~input_o\ $end
$var wire 1 D \clk~inputclkctrl_outclk\ $end
$var wire 1 E \E~input_o\ $end
$var wire 1 F \u3|Q~q\ $end
$var wire 1 G \u2|Q~0_combout\ $end
$var wire 1 H \u2|Q~q\ $end
$var wire 1 I \u1|S~0_combout\ $end
$var wire 1 J \u4|Q~feeder_combout\ $end
$var wire 1 K \u4|Q~q\ $end
$upscope $end
$upscope $end
$enddefinitions $end
#0
$dumpvars
0!
0"
0#
0$
1%
x&
1'
1(
1)
1*
1+
1,
0-
0.
0/
0>
z?
z@
zA
0B
0C
0D
0E
0F
0G
0H
0I
0J
0K
1:
1;
1<
0=
00
01
02
03
04
05
06
07
08
09
$end
#1000000
1!
1.
1C
1=
1D
#2000000
0!
0.
0C
0=
0D
#3000000
1!
1"
1.
1-
1E
1C
1=
1G
1D
1H
0G
1I
1J
#4000000
0!
0.
0C
0=
0D
#5000000
1!
1.
1C
1=
1D
1F
0H
1K
1B
1G
0I
1/
0J
1#
#6000000
0!
0"
0.
0-
0E
0C
0=
0G
1I
1J
0D
#7000000
1!
1"
1.
1-
1E
1C
1=
1G
0I
0J
1D
0F
1H
0K
0B
0G
1I
0/
1J
0#
#8000000
0!
0.
0C
0=
0D
#9000000
1!
0"
1.
0-
0E
1C
1=
1G
0I
0J
1D
