FFJK/simulation/qsim/FFJK.msim.vcd
$comment
	File created using the following command:
		vcd file FFJK.msim.vcd -direction
$end
$date
	Sun Apr 17 19:07:42 2022
$end
$version
	ModelSim Version 10.5b
$end
$timescale
	1ps
$end

$scope module ffjk_vhd_vec_tst $end
$var wire 1 ! clk $end
$var wire 1 " SQ0 $end
$var wire 1 # SQ1 $end

$scope module i1 $end
$var wire 1 $ gnd $end
$var wire 1 % vcc $end
$var wire 1 & unknown $end
$var wire 1 ' devoe $end
$var wire 1 ( devclrn $end
$var wire 1 ) devpor $end
$var wire 1 * ww_devoe $end
$var wire 1 + ww_devclrn $end
$var wire 1 , ww_devpor $end
$var wire 1 - ww_clk $end
$var wire 1 . ww_SQ1 $end
$var wire 1 / ww_SQ0 $end
$var wire 1 0 \~QUARTUS_CREATED_GND~I_combout\ $end
$var wire 1 1 \clk~input_o\ $end
$var wire 1 2 \clk~inputCLKENA0_outclk\ $end
$var wire 1 3 \Q0~q\ $end
$var wire 1 4 \Q0~0_combout\ $end
$var wire 1 5 \Q0~DUPLICATE_q\ $end
$var wire 1 6 \Q1~0_combout\ $end
$var wire 1 7 \Q1~q\ $end
$var wire 1 8 \ALT_INV_Q0~DUPLICATE_q\ $end
$var wire 1 9 \ALT_INV_Q0~q\ $end
$var wire 1 : \ALT_INV_Q1~q\ $end
$upscope $end
$upscope $end
$enddefinitions $end
#0
$dumpvars
0!
0"
0#
0$
1%
x&
1'
1(
1)
1*
1+
1,
0-
0.
0/
x0
01
02
03
14
05
06
07
18
19
1:
$end
#500000
1!
1-
11
12
13
15
08
09
04
16
1/
1"
#1000000
0!
0-
01
02
#1500000
1!
1-
11
12
03
05
17
0:
18
19
14
1.
0/
1#
0"
#2000000
0!
0-
01
02
#2500000
1!
1-
11
12
13
15
08
09
04
06
1/
1"
#3000000
0!
0-
01
02
#3500000
1!
1-
11
12
03
05
07
1:
18
19
14
0.
0/
0#
0"
#4000000
0!
0-
01
02
#4500000
1!
1-
11
12
13
15
08
09
04
16
1/
1"
#5000000
0!
0-
01
02
#5500000
1!
1-
11
12
03
05
17
0:
18
19
14
1.
0/
1#
0"
#6000000
0!
0-
01
02
#6500000
1!
1-
11
12
13
15
08
09
04
06
1/
1"
#7000000
0!
0-
01
02
#7500000
1!
1-
11
12
03
05
07
1:
18
19
14
0.
0/
0#
0"
#8000000
0!
0-
01
02
#8500000
1!
1-
11
12
13
15
08
09
04
16
1/
1"
#9000000
0!
0-
01
02
#9500000
1!
1-
11
12
03
05
17
0:
18
19
14
1.
0/
1#
0"
