Funcional/simulation/qsim/Paridad.msim.vcd
$comment
	File created using the following command:
		vcd file Paridad.msim.vcd -direction
$end
$date
	Fri Apr 15 19:23:39 2022
$end
$version
	ModelSim Version 10.5b
$end
$timescale
	1ps
$end

$scope module par_vhd_vec_tst $end
$var wire 1 ! clk $end
$var wire 1 " E $end
$var wire 1 # reset $end
$var wire 1 $ S $end

$scope module i1 $end
$var wire 1 % gnd $end
$var wire 1 & vcc $end
$var wire 1 ' unknown $end
$var wire 1 ( devoe $end
$var wire 1 ) devclrn $end
$var wire 1 * devpor $end
$var wire 1 + ww_devoe $end
$var wire 1 , ww_devclrn $end
$var wire 1 - ww_devpor $end
$var wire 1 . ww_clk $end
$var wire 1 / ww_E $end
$var wire 1 0 ww_reset $end
$var wire 1 1 ww_S $end
$var wire 1 2 \~QUARTUS_CREATED_ADC1~_CHSEL_bus\ [4] $end
$var wire 1 3 \~QUARTUS_CREATED_ADC1~_CHSEL_bus\ [3] $end
$var wire 1 4 \~QUARTUS_CREATED_ADC1~_CHSEL_bus\ [2] $end
$var wire 1 5 \~QUARTUS_CREATED_ADC1~_CHSEL_bus\ [1] $end
$var wire 1 6 \~QUARTUS_CREATED_ADC1~_CHSEL_bus\ [0] $end
$var wire 1 7 \~QUARTUS_CREATED_ADC2~_CHSEL_bus\ [4] $end
$var wire 1 8 \~QUARTUS_CREATED_ADC2~_CHSEL_bus\ [3] $end
$var wire 1 9 \~QUARTUS_CREATED_ADC2~_CHSEL_bus\ [2] $end
$var wire 1 : \~QUARTUS_CREATED_ADC2~_CHSEL_bus\ [1] $end
$var wire 1 ; \~QUARTUS_CREATED_ADC2~_CHSEL_bus\ [0] $end
$var wire 1 < \~QUARTUS_CREATED_GND~I_combout\ $end
$var wire 1 = \~QUARTUS_CREATED_UNVM~~busy\ $end
$var wire 1 > \~QUARTUS_CREATED_ADC1~~eoc\ $end
$var wire 1 ? \~QUARTUS_CREATED_ADC2~~eoc\ $end
$var wire 1 @ \S~output_o\ $end
$var wire 1 A \clk~input_o\ $end
$var wire 1 B \E~input_o\ $end
$var wire 1 C \reset~input_o\ $end
$var wire 1 D \present_state~0_combout\ $end
$var wire 1 E \present_state~1_combout\ $end
$var wire 1 F \present_state[0]~feeder_combout\ $end
$var wire 1 G \Mux0~0_combout\ $end
$var wire 1 H \S$latch~combout\ $end
$var wire 1 I present_state [1] $end
$var wire 1 J present_state [0] $end
$upscope $end
$upscope $end
$enddefinitions $end
#0
$dumpvars
0!
0"
0#
0$
0%
1&
x'
1(
1)
1*
1+
1,
1-
0.
0/
00
01
0<
z=
z>
z?
0@
0A
0B
0C
0D
0E
0F
1G
0H
0I
0J
02
03
04
05
06
07
08
09
0:
0;
$end
#1000000
1!
1"
1.
1/
1B
1A
1E
1F
#2000000
0!
0.
0A
#3000000
1!
1.
1A
1J
1D
0E
0F
#4000000
0!
0.
0A
#5000000
1!
0"
1.
0/
0B
1A
1I
0J
0D
1E
1F
1D
0E
1H
1@
0F
11
1$
#6000000
0!
1"
0.
1/
1B
0A
0D
1E
1F
#7000000
1!
1.
1A
0I
1J
1D
0E
0H
0@
0F
01
0$
#8000000
0!
0"
0.
0/
0B
0A
0D
1E
1F
#9000000
1!
1.
1A
