MooreF/simulation/qsim/Moore.msim.vcd
$comment
	File created using the following command:
		vcd file Moore.msim.vcd -direction
$end
$date
	Sun Apr 17 14:48:10 2022
$end
$version
	ModelSim Version 10.5b
$end
$timescale
	1ps
$end

$scope module mooref_vhd_vec_tst $end
$var wire 1 ! clk $end
$var wire 1 " reset $end
$var wire 1 # salMoore [1] $end
$var wire 1 $ salMoore [0] $end

$scope module i1 $end
$var wire 1 % gnd $end
$var wire 1 & vcc $end
$var wire 1 ' unknown $end
$var wire 1 ( devoe $end
$var wire 1 ) devclrn $end
$var wire 1 * devpor $end
$var wire 1 + ww_devoe $end
$var wire 1 , ww_devclrn $end
$var wire 1 - ww_devpor $end
$var wire 1 . ww_clk $end
$var wire 1 / ww_reset $end
$var wire 1 0 ww_salMoore [1] $end
$var wire 1 1 ww_salMoore [0] $end
$var wire 1 2 \~QUARTUS_CREATED_GND~I_combout\ $end
$var wire 1 3 \clk~input_o\ $end
$var wire 1 4 \clk~inputCLKENA0_outclk\ $end
$var wire 1 5 \reset~input_o\ $end
$var wire 1 6 \present_state~0_combout\ $end
$var wire 1 7 \present_state~1_combout\ $end
$var wire 1 8 present_state [1] $end
$var wire 1 9 present_state [0] $end
$var wire 1 : ALT_INV_present_state [1] $end
$var wire 1 ; ALT_INV_present_state [0] $end
$var wire 1 < \ALT_INV_reset~input_o\ $end
$upscope $end
$upscope $end
$enddefinitions $end
#0
$dumpvars
0!
0"
0%
1&
x'
1(
1)
1*
1+
1,
1-
0.
0/
x2
03
04
05
16
07
1<
00
01
08
09
1:
1;
0#
0$
$end
#500
1!
1.
13
14
19
0;
06
17
11
1$
#1000
0!
0.
03
04
#1500
1!
1.
13
14
09
18
0:
1;
16
10
01
0$
1#
#2000
0!
0.
03
04
#2500
1!
1.
13
14
19
0;
06
07
11
1$
#3000
0!
0.
03
04
#3500
1!
1.
13
14
09
08
1:
1;
16
00
01
0$
0#
#4000
0!
0.
03
04
#4500
1!
1.
13
14
19
0;
06
17
11
1$
#5000
0!
0.
03
04
#5500
1!
1.
13
14
09
18
0:
1;
16
10
01
0$
1#
#6000
0!
0.
03
04
#6500
1!
1.
13
14
19
0;
06
07
11
1$
#7000
0!
0.
03
04
#7500
1!
1.
13
14
09
08
1:
1;
16
00
01
0$
0#
#8000
0!
0.
03
04
#8500
1!
1.
13
14
19
0;
06
17
11
1$
#9000
0!
0.
03
04
#9500
1!
1.
13
14
09
18
0:
1;
16
10
01
0$
1#
